%YAML 1.1
%TAG !u! tag:unity3d.com,2011:
--- !u!114 &11400000
MonoBehaviour:
  m_ObjectHideFlags: 0
  m_CorrespondingSourceObject: {fileID: 0}
  m_PrefabInstance: {fileID: 0}
  m_PrefabAsset: {fileID: 0}
  m_GameObject: {fileID: 0}
  m_Enabled: 1
  m_EditorHideFlags: 0
  m_Script: {fileID: 11500000, guid: c26c3799edde4f76bf5134c884ed5e2d, type: 3}
  m_Name: GameConfiguration
  m_EditorClassIdentifier: 
  gameplayPrefabs:
    playerPrefab: {fileID: 6547114979395561401, guid: b2c2dacd96d7d426a95b6d9062e97138,
      type: 3}
